DataWrangleFlanker_student.utf8.md
…
#test<- cong_trial %>%
    #group_by(subject)
    #mutate()

check_cong<- Reaction_T %>%
  group_by(congruency,subject) %>%
  summarise(trial_count=length(block),
            mean_acc=mean(Accuracy),
            mean_RT=mean(RT))

print(check_cong)

## # A tibble: 44 x 5
## # Groups:   congruency [2]
##    congruency subject trial_count mean_acc   mean_RT
##    <chr>      <chr>         <int>    <dbl>     <dbl>
##  1 C          1.txt            96    0.917 2.73e-321
##  2 C          10.txt           96    0.948 5.32e-321
##  3 C          11.txt           96    0.938 3.50e-321
##  4 C          12.txt           96    0.927 3.08e-321
##  5 C          13.txt           96    0.896 2.70e-321
##  6 C          14.txt           96    0.969 3.56e-321
##  7 C          15.txt           96    0.990 3.13e-321
##  8 C          16.txt           96    0.958 2.84e-321
##  9 C          17.txt           96    0.969 3.13e-321
## 10 C          18.txt           96    1     3.97e-321
## # … with 34 more rows
…
Analysis

Reaction Time analysis

Get the individual subject mean reaction times for correct congruent and incongruent trials.

RT_anal<- limited_dataset %>%
  filter(Accuracy==1) %>%
  group_by(congruency,subject) %>%
  summarise(mean_RT=mean(RT))

print(RT_anal)

## # A tibble: 44 x 3
## # Groups:   congruency [2]
##    congruency subject   mean_RT
##    <chr>      <chr>       <dbl>
##  1 C          1.txt   2.76e-321
##  2 C          10.txt  4.25e-321
##  3 C          11.txt  3.53e-321
##  4 C          12.txt  3.03e-321
##  5 C          13.txt  2.63e-321
##  6 C          14.txt  3.27e-321
##  7 C          15.txt  3.13e-321
##  8 C          16.txt  2.83e-321
##  9 C          17.txt  3.07e-321
## 10 C          18.txt  3.97e-321
## # … with 34 more rows
…
